[gd_scene load_steps=4 format=3 uid="uid://cm3tqrcdaihdi"]

[ext_resource type="PackedScene" uid="uid://dj3w5htwyakpl" path="res://scenes/Global/NoHeaderTemplate.tscn" id="1_vymin"]
[ext_resource type="PackedScene" uid="uid://22l3is41kgub" path="res://logic/FreecoiLInterface/FreecoiLInterface.tscn" id="2_p0nwu"]

[sub_resource type="GDScript" id="GDScript_45xs0"]
resource_name = "WaitForPlugin"
script/source = "extends VBoxContainer

var moved_to_next_scene = false

# Called when the node enters the scene tree for the first time.
func _ready() -> void:
    pass # Replace with function body.


# Called every frame. 'delta' is the elapsed time since the previous frame.
func _process(_delta: float) -> void:
    if moved_to_next_scene:
        return
    if not Engine.has_singleton(\"FreecoiL\"):
        moved_to_next_scene = true
        get_parent().goto_scene(\"res://scenes/Global/NoHeaderTemplate.tscn\")
        return
    if PM.MSC.has_node(\"FreecoiLInterface\"):
        if PM.MSC.get_node(\"FreecoiLInterface\").interface_initialized:
            moved_to_next_scene = true
            get_parent().goto_scene(\"res://scenes/MainMenu/LocationPermission.tscn\")
"

[node name="MarginContainer" instance=ExtResource("1_vymin")]
multiscenecode_to_load = Array[Resource]([ExtResource("2_p0nwu")])

[node name="VBoxContainer" parent="." index="0"]
script = SubResource("GDScript_45xs0")

[node name="TitleLabel" parent="VBoxContainer/VBoxContainer2/VBoxContainer" index="0"]
text = "Initializing Plugin"

[node name="TextLabel" parent="VBoxContainer/VBoxContainer2/HBoxContainer" index="0"]
text = "Please wait while the FreecoiL Kotlin Plugin is initialized."

[editable path="VBoxContainer/VBoxContainer2/VBoxContainer"]
