[gd_scene load_steps=3 format=3 uid="uid://bufua11xv4te"]

[ext_resource type="PackedScene" uid="uid://dj3w5htwyakpl" path="res://scenes/Global/NoHeaderTemplate.tscn" id="1_k7m88"]

[sub_resource type="GDScript" id="GDScript_4bslm"]
resource_name = "RequestLocationPermission"
script/source = "extends VBoxContainer


# Called when the node enters the scene tree for the first time.
func _ready() -> void:
    while PM.submodules_ready == false:
        await get_tree().process_frame
    PM.SD.connect(PM.SD.mon_(\"fi_fine_access_location_permission\"), 
        Callable(self, \"check_if_permission_granted\")
    )
    wait_for_transition()


# Called every frame. 'delta' is the elapsed time since the previous frame.
func _process(_delta: float) -> void:
    pass

func wait_for_transition():
    await PM.LoadingScreen.fade_out_complete
    print(\"requesting all permissions.\")
    PM.MSC.get_node(\"FreecoiLInterface\").request_all_permissions()

func check_if_permission_granted(granted):
    if granted:
        get_parent().goto_scene(\"res://scenes/MainMenu/TurnOnBluetooth.tscn\")
    else:
        PM.MSC.get_node(\"FreecoiLInterface\").request_all_permissions()
"

[node name="MarginContainer" instance=ExtResource("1_k7m88")]

[node name="VBoxContainer" parent="." index="0"]
script = SubResource("GDScript_4bslm")

[node name="TitleLabel" parent="VBoxContainer/VBoxContainer2/VBoxContainer" index="0"]
text = "Location Permissions"

[node name="TextLabel" parent="VBoxContainer/VBoxContainer2/HBoxContainer" index="0"]
text = "FreecoiL requires Location Permissions for Bluetooth and for GPS. But on Android these permissions are bundled and they are critical to the application. It only needs these permissions while using the app."

[editable path="VBoxContainer/VBoxContainer2/VBoxContainer"]
